…
```
## `summarise()` ungrouping output (override with `.groups` argument)
```

```r
ranking_db
```

```
## # A tibble: 27 x 2
##    siglaTribunal score_medio
##    <fct>               <dbl>
##  1 TJBA                0.585
##  2 TJRJ                0.555
##  3 TJAC                0.520
##  4 TJRO                0.494
##  5 TJAL                0.491
##  6 TJSC                0.482
##  7 TJMT                0.477
##  8 TJMG                0.460
##  9 TJRS                0.435
## 10 TJSP                0.435
## # … with 17 more rows
```
…
```
## `summarise()` ungrouping output (override with `.groups` argument)
```

```r
ranking_mov
```

```
## # A tibble: 27 x 2
##    siglaTribunal score_medio2
##    <fct>                <dbl>
##  1 TJMS                 0.463
##  2 TJAL                 0.462
##  3 TJSP                 0.447
##  4 TJMA                 0.446
##  5 TJTO                 0.432
##  6 TJSC                 0.425
##  7 TJSE                 0.416
##  8 TJRR                 0.414
##  9 TJAP                 0.412
## 10 TJPA                 0.405
## # … with 17 more rows
```



```r
ranking <- ranking_db %>% 
  left_join(ranking_mov, by = "siglaTribunal") %>% 
  mutate(score = (score_medio + score_medio2)/2)
ranking
```

```
## # A tibble: 27 x 4
##    siglaTribunal score_medio score_medio2 score
##    <fct>               <dbl>        <dbl> <dbl>
##  1 TJBA                0.585        0.395 0.490
##  2 TJRJ                0.555        0.357 0.456
##  3 TJAC                0.520        0.382 0.451
##  4 TJRO                0.494        0.380 0.437
##  5 TJAL                0.491        0.462 0.476
##  6 TJSC                0.482        0.425 0.454
##  7 TJMT                0.477        0.388 0.433
##  8 TJMG                0.460        0.381 0.421
##  9 TJRS                0.435        0.383 0.409
## 10 TJSP                0.435        0.447 0.441
## # … with 17 more rows
```
…
